Oscilloscope_MCP3202_7_complete/simulation/qsim/Ossiloscope_MCP3202.msim.vcd
$comment
	File created using the following command:
		vcd file Ossiloscope_MCP3202.msim.vcd -direction
$end
$date
	Wed May 11 15:40:45 2016
$end
$version
	ModelSim Version 10.1d
$end
$timescale
	1ps
$end
$scope module delay_vlg_vec_tst $end
$var reg 1 ! clk $end
$var reg 1 " req $end
$var reg 1 # reset $end
$var wire 1 $ b $end
$var wire 1 % sampler $end
$scope module i1 $end
$var wire 1 & gnd $end
$var wire 1 ' vcc $end
$var wire 1 ( unknown $end
$var tri1 1 ) devclrn $end
$var tri1 1 * devpor $end
$var tri1 1 + devoe $end
$var wire 1 , b~output_o $end
$var wire 1 - clk~input_o $end
$var wire 1 . Check[0]~33_combout $end
$var wire 1 / reset~input_o $end
$var wire 1 0 req~input_o $end
$var wire 1 1 start~0_combout $end
$var wire 1 2 start~q $end
$var wire 1 3 state~0_combout $end
$var wire 1 4 state~q $end
$var wire 1 5 Equal0~0_combout $end
$var wire 1 6 Check[31]~32_combout $end
$var wire 1 7 b~11_combout $end
$var wire 1 8 Check[0]~34 $end
$var wire 1 9 Check[1]~35_combout $end
$var wire 1 : Check[1]~36 $end
$var wire 1 ; Check[2]~37_combout $end
$var wire 1 < Check[2]~38 $end
$var wire 1 = Check[3]~39_combout $end
$var wire 1 > Check[3]~40 $end
$var wire 1 ? Check[4]~41_combout $end
$var wire 1 @ Check[4]~42 $end
$var wire 1 A Check[5]~43_combout $end
$var wire 1 B Check[5]~44 $end
$var wire 1 C Check[6]~45_combout $end
$var wire 1 D b~0_combout $end
$var wire 1 E Check[6]~46 $end
$var wire 1 F Check[7]~47_combout $end
$var wire 1 G Check[7]~48 $end
$var wire 1 H Check[8]~49_combout $end
$var wire 1 I Check[8]~50 $end
$var wire 1 J Check[9]~51_combout $end
$var wire 1 K Check[9]~52 $end
$var wire 1 L Check[10]~53_combout $end
$var wire 1 M b~1_combout $end
$var wire 1 N Check[10]~54 $end
$var wire 1 O Check[11]~55_combout $end
$var wire 1 P Check[11]~56 $end
$var wire 1 Q Check[12]~57_combout $end
$var wire 1 R Check[12]~58 $end
$var wire 1 S Check[13]~59_combout $end
$var wire 1 T Check[13]~60 $end
$var wire 1 U Check[14]~61_combout $end
$var wire 1 V b~2_combout $end
$var wire 1 W Check[14]~62 $end
$var wire 1 X Check[15]~63_combout $end
$var wire 1 Y Check[15]~64 $end
$var wire 1 Z Check[16]~65_combout $end
$var wire 1 [ Check[16]~66 $end
$var wire 1 \ Check[17]~67_combout $end
$var wire 1 ] Check[17]~68 $end
$var wire 1 ^ Check[18]~69_combout $end
$var wire 1 _ b~3_combout $end
$var wire 1 ` b~4_combout $end
$var wire 1 a Check[18]~70 $end
$var wire 1 b Check[19]~71_combout $end
$var wire 1 c Check[19]~72 $end
$var wire 1 d Check[20]~73_combout $end
$var wire 1 e Check[20]~74 $end
$var wire 1 f Check[21]~75_combout $end
$var wire 1 g Check[21]~76 $end
$var wire 1 h Check[22]~77_combout $end
$var wire 1 i b~5_combout $end
$var wire 1 j Check[22]~78 $end
$var wire 1 k Check[23]~79_combout $end
$var wire 1 l Check[23]~80 $end
$var wire 1 m Check[24]~81_combout $end
$var wire 1 n Check[24]~82 $end
$var wire 1 o Check[25]~83_combout $end
$var wire 1 p Check[25]~84 $end
$var wire 1 q Check[26]~85_combout $end
$var wire 1 r b~6_combout $end
$var wire 1 s Check[26]~86 $end
$var wire 1 t Check[27]~87_combout $end
$var wire 1 u Check[27]~88 $end
$var wire 1 v Check[28]~89_combout $end
$var wire 1 w Check[28]~90 $end
$var wire 1 x Check[29]~91_combout $end
$var wire 1 y Check[29]~92 $end
$var wire 1 z Check[30]~93_combout $end
$var wire 1 { b~7_combout $end
$var wire 1 | Check[30]~94 $end
$var wire 1 } Check[31]~95_combout $end
$var wire 1 ~ b~8_combout $end
$var wire 1 !! b~9_combout $end
$var wire 1 "! b~10_combout $end
$var wire 1 #! b~12_combout $end
$var wire 1 $! b~13_combout $end
$var wire 1 %! b~reg0_q $end
$var wire 1 &! Check [31] $end
$var wire 1 '! Check [30] $end
$var wire 1 (! Check [29] $end
$var wire 1 )! Check [28] $end
$var wire 1 *! Check [27] $end
$var wire 1 +! Check [26] $end
$var wire 1 ,! Check [25] $end
$var wire 1 -! Check [24] $end
$var wire 1 .! Check [23] $end
$var wire 1 /! Check [22] $end
$var wire 1 0! Check [21] $end
$var wire 1 1! Check [20] $end
$var wire 1 2! Check [19] $end
$var wire 1 3! Check [18] $end
$var wire 1 4! Check [17] $end
$var wire 1 5! Check [16] $end
$var wire 1 6! Check [15] $end
$var wire 1 7! Check [14] $end
$var wire 1 8! Check [13] $end
$var wire 1 9! Check [12] $end
$var wire 1 :! Check [11] $end
$var wire 1 ;! Check [10] $end
$var wire 1 <! Check [9] $end
$var wire 1 =! Check [8] $end
$var wire 1 >! Check [7] $end
$var wire 1 ?! Check [6] $end
$var wire 1 @! Check [5] $end
$var wire 1 A! Check [4] $end
$var wire 1 B! Check [3] $end
$var wire 1 C! Check [2] $end
$var wire 1 D! Check [1] $end
$var wire 1 E! Check [0] $end
$upscope $end
$upscope $end
$enddefinitions $end
#0
$dumpvars
0!
0"
1#
0$
x%
0&
1'
x(
1)
1*
1+
0,
0-
1.
1/
00
11
02
13
04
15
06
07
08
09
1:
0;
0<
0=
1>
0?
0@
0A
1B
0C
0D
0E
0F
1G
0H
0I
0J
1K
0L
1M
0N
0O
1P
0Q
0R
0S
1T
0U
1V
0W
0X
1Y
0Z
0[
0\
1]
0^
1_
1`
0a
0b
1c
0d
0e
0f
1g
0h
1i
0j
0k
1l
0m
0n
0o
1p
0q
1r
0s
0t
1u
0v
0w
0x
1y
0z
1{
0|
0}
1~
0!!
0"!
0#!
0$!
0%!
0E!
0D!
0C!
0B!
0A!
0@!
0?!
0>!
0=!
0<!
0;!
0:!
09!
08!
07!
06!
05!
04!
03!
02!
01!
00!
0/!
0.!
0-!
0,!
0+!
0*!
0)!
0(!
0'!
0&!
$end
#5000
1!
1-
0%
14
12
16
03
13
#10000
0!
0-
1%
#15000
1!
1-
0%
1E!
18
0.
19
#20000
0!
0-
1%
#25000
1!
1-
0%
1D!
0E!
0:
09
08
1.
1;
1:
19
0;
#30000
0!
0-
1%
#35000
1!
1-
0%
1E!
1"!
18
0.
0:
09
1;
#40000
0!
0-
1%
#45000
1!
1-
0%
1C!
0D!
0E!
0"!
1<
0;
05
1:
19
08
1.
1=
0<
1;
09
0=
#50000
0!
0-
1%
#55000
1!
1-
0%
1E!
15
18
0.
19
#60000
0!
0-
1%
#65000
1!
1-
0%
1D!
0E!
0:
09
08
1.
1<
0;
1:
19
1=
0<
1;
0=
#70000
0!
0-
1%
#75000
1!
1-
0%
1E!
18
0.
0:
09
1<
0;
1=
#80000
0!
0-
1%
#85000
1!
1-
0%
1B!
0C!
0D!
0E!
0>
0=
0<
1;
1:
19
08
1.
1?
1>
1=
0;
09
0?
#90000
0!
0-
1%
#95000
1!
1-
0%
1E!
18
0.
19
#100000
0!
0-
1%
#105000
1!
1-
0%
1D!
0E!
0:
09
08
1.
1;
1:
19
0;
#110000
0!
0-
1%
#115000
1!
1-
0%
1E!
1"!
18
0.
0:
09
1;
#120000
0!
0-
1%
#125000
1!
1-
0%
1C!
0D!
0E!
0"!
1<
0;
05
1:
19
08
1.
0>
0=
0<
1;
09
1?
1>
1=
0?
#130000
1"
0!
10
0-
1%
#135000
1!
1-
0%
1E!
15
18
0.
19
#140000
0"
0!
00
0-
1%
#145000
1!
1-
0%
1D!
0E!
0:
09
08
1.
1<
0;
1:
19
0>
0=
0<
1;
1?
1>
1=
0?
#150000
0!
0-
1%
#155000
1!
1-
0%
1E!
18
0.
0:
09
1<
0;
0>
0=
1?
#160000
0!
0-
1%
#165000
1!
1-
0%
1A!
0B!
0C!
0D!
0E!
1D
1@
0?
1>
1=
0<
1;
1:
19
08
1.
1!!
1A
0@
1?
0=
0;
09
0A
#170000
0!
0-
1%
#175000
1!
1-
0%
1E!
18
0.
19
#180000
0!
0-
1%
#185000
1!
1-
0%
1D!
0E!
0:
09
08
1.
1;
1:
19
0;
#190000
0!
0-
1%
#195000
1!
1-
0%
1E!
1"!
18
0.
1#!
0:
09
1$!
1;
#200000
0!
0-
1%
#205000
1!
1-
0%
1C!
0D!
0E!
1%!
0"!
1<
0;
05
1:
19
08
1.
1,
1$
0#!
1=
06
0<
1;
09
0$!
03
0=
#210000
0!
0-
1%
#215000
1!
1-
0%
0A!
0C!
04
0%!
0D
0?
0;
15
17
0,
0$
0!!
#220000
0!
0-
1%
#225000
1!
1-
0%
#230000
0!
0-
1%
#235000
1!
1-
0%
#240000
0!
0-
1%
#245000
1!
1-
0%
#250000
0!
0-
1%
#255000
1!
1-
0%
#260000
0!
0-
1%
#265000
1!
1-
0%
#270000
0!
0-
1%
#275000
1!
1-
0%
#280000
0!
0-
1%
#285000
1!
1-
0%
#290000
0!
0-
1%
#295000
1!
1-
0%
#300000
0!
0-
1%
#305000
1!
1-
0%
#310000
0!
0-
1%
#315000
1!
1-
0%
#320000
0!
0-
1%
#325000
1!
1-
0%
#330000
0!
0-
1%
#335000
1!
1-
0%
#340000
0!
0-
1%
#345000
1!
1-
0%
#350000
0!
0-
1%
#355000
1!
1-
0%
#360000
1"
0!
10
0-
1%
07
13
#365000
1!
1-
0%
14
16
03
13
#370000
0"
0!
00
0-
1%
#375000
1!
1-
0%
1E!
18
0.
19
#380000
0!
0-
1%
#385000
1!
1-
0%
1D!
0E!
0:
09
08
1.
1;
1:
19
0;
#390000
0!
0-
1%
#395000
1!
1-
0%
1E!
1"!
18
0.
0:
09
1;
#400000
0!
0-
1%
#405000
1!
1-
0%
1C!
0D!
0E!
0"!
1<
0;
05
1:
19
08
1.
1=
0<
1;
09
0=
#410000
0!
0-
1%
#415000
1!
1-
0%
1E!
15
18
0.
19
#420000
0!
0-
1%
#425000
1!
1-
0%
1D!
0E!
0:
09
08
1.
1<
0;
1:
19
1=
0<
1;
0=
#430000
0!
0-
1%
#435000
1!
1-
0%
1E!
18
0.
0:
09
1<
0;
1=
#440000
0!
0-
1%
#445000
1!
1-
0%
1B!
0C!
0D!
0E!
0>
0=
0<
1;
1:
19
08
1.
1?
1>
1=
0;
09
0?
#450000
0!
0-
1%
#455000
1!
1-
0%
1E!
18
0.
19
#460000
0!
0-
1%
#465000
1!
1-
0%
1D!
0E!
0:
09
08
1.
1;
1:
19
0;
#470000
0!
0-
1%
#475000
1!
1-
0%
1E!
1"!
18
0.
0:
09
1;
#480000
0!
0-
1%
#485000
1!
1-
0%
1C!
0D!
0E!
0"!
1<
0;
05
1:
19
08
1.
0>
0=
0<
1;
09
1?
1>
1=
0?
#490000
0!
0-
1%
#495000
1!
1-
0%
1E!
15
18
0.
19
#500000
0!
0-
1%
#505000
1!
1-
0%
1D!
0E!
0:
09
08
1.
1<
0;
1:
19
0>
0=
0<
1;
1?
1>
1=
0?
#510000
0!
0-
1%
#515000
1!
1-
0%
1E!
18
0.
0:
09
1<
0;
0>
0=
1?
#520000
0!
0-
1%
#525000
1!
1-
0%
1A!
0B!
0C!
0D!
0E!
1D
1@
0?
1>
1=
0<
1;
1:
19
08
1.
1!!
1A
0@
1?
0=
0;
09
0A
#530000
0!
0-
1%
#535000
1!
1-
0%
1E!
18
0.
19
#540000
0!
0-
1%
#545000
1!
1-
0%
1D!
0E!
0:
09
08
1.
1;
1:
19
0;
#550000
0!
0-
1%
#555000
1!
1-
0%
1E!
1"!
18
0.
1#!
0:
09
1$!
1;
#560000
0!
0-
1%
#565000
1!
1-
0%
1C!
0D!
0E!
1%!
0"!
1<
0;
05
1:
19
08
1.
1,
1$
0#!
1=
06
0<
1;
09
0$!
03
0=
#570000
0!
0-
1%
#575000
1!
1-
0%
0A!
0C!
04
0%!
0D
0?
0;
15
17
0,
0$
0!!
#580000
0!
0-
1%
#585000
1!
1-
0%
#590000
0!
0-
1%
#595000
1!
1-
0%
#600000
0!
0-
1%
#605000
1!
1-
0%
#610000
0!
0-
1%
#615000
1!
1-
0%
#620000
0!
0-
1%
#625000
1!
1-
0%
#630000
0!
0-
1%
#635000
1!
1-
0%
#640000
0!
0-
1%
#645000
1!
1-
0%
#650000
0!
0-
1%
#655000
1!
1-
0%
#660000
0!
0-
1%
#665000
1!
1-
0%
#670000
0!
0-
1%
#675000
1!
1-
0%
#680000
0!
0-
1%
#685000
1!
1-
0%
#690000
0!
0-
1%
#695000
1!
1-
0%
#700000
0!
0-
1%
#705000
1!
1-
0%
#710000
0!
0-
1%
#715000
1!
1-
0%
#720000
0!
0-
1%
#725000
1!
1-
0%
#730000
0!
0-
1%
#735000
1!
1-
0%
#740000
0!
0-
1%
#745000
1!
1-
0%
#750000
0!
0-
1%
#755000
1!
1-
0%
#760000
0!
0-
1%
#765000
1!
1-
0%
#770000
0!
0-
1%
#775000
1!
1-
0%
#780000
0!
0-
1%
#785000
1!
1-
0%
#790000
0!
0-
1%
#795000
1!
1-
0%
#800000
0!
0-
1%
#805000
1!
1-
0%
#810000
0!
0-
1%
#815000
1!
1-
0%
#820000
0!
0-
1%
#825000
1!
1-
0%
#830000
0!
0-
1%
#835000
1!
1-
0%
#840000
0!
0-
1%
#845000
1!
1-
0%
#850000
0!
0-
1%
#855000
1!
1-
0%
#860000
0!
0-
1%
#865000
1!
1-
0%
#870000
0!
0-
1%
#875000
1!
1-
0%
#880000
0!
0-
1%
#885000
1!
1-
0%
#890000
0!
0-
1%
#895000
1!
1-
0%
#900000
0!
0-
1%
#905000
1!
1-
0%
#910000
0!
0-
1%
#915000
1!
1-
0%
#920000
0!
0-
1%
#925000
1!
1-
0%
#930000
0!
0-
1%
#935000
1!
1-
0%
#940000
0!
0-
1%
#945000
1!
1-
0%
#950000
0!
0-
1%
#955000
1!
1-
0%
#960000
0!
0-
1%
#965000
1!
1-
0%
#970000
0!
0-
1%
#975000
1!
1-
0%
#980000
0!
0-
1%
#985000
1!
1-
0%
#990000
0!
0-
1%
#995000
1!
1-
0%
